pemalty,accuracy,recall,f1
5.0,0.9912026726057906,0.9918835044163284,0.9905829061866731
2.0,0.9910913140311804,0.990689902124612,0.9904534606205251
1.0,0.9904231625835189,0.9911673430412986,0.9897497020262217
0.1,0.9798440979955456,0.9868703747911196,0.9785773464315304
0.01,0.9527839643652561,0.9682501790403437,0.9503280224929709
0.001,0.5335189309576838,0.0,0.0
