n_estimator,accuracy,recall,f1
10,0.9938752783964365,0.996244131455399,0.9935619805688868
50,0.9953229398663697,0.9974178403755869,0.9950819672131147
100,0.9969933184855234,0.997887323943662,0.9968343299331692
200,0.9977728285077951,0.998356807511737,0.997654234107436
300,0.9975501113585746,0.997887323943662,0.9974190520882215
1000,0.9975501113585746,0.997887323943662,0.9974190520882215
