pemalty,accuracy,recall,f1
5.0,0.9956570155902005,0.9965349965349966,0.9955001730702666
2.0,0.9955456570155902,0.9963039963039964,0.9953842603277175
1.0,0.9946547884187082,0.9963039963039964,0.9944662208900161
0.1,0.9867483296213808,0.9902979902979903,0.9863108248015644
0.01,0.9639198218262807,0.9732039732039732,0.9629714285714286
0.001,0.5179287305122494,0.0,0.0
