max_iter,accuracy,recall,f1
10,0.9824053452115813,0.9812884888678352,0.9812884888678352
50,0.9828507795100223,0.9817621980104216,0.9817621980104216
100,0.9830734966592427,0.982235907153008,0.9820033151787828
200,0.9822939866369711,0.9805779251539555,0.9811589050835406
